<?xml version="1.0" encoding="UTF-8" standalone="no"?>
<!DOCTYPE svg PUBLIC "-//W3C//DTD SVG 1.1//EN" "http://www.w3.org/Graphics/SVG/1.1/DTD/svg11.dtd">
<svg width="100%" height="100%" viewBox="0 0 740 988" version="1.1" xmlns="http://www.w3.org/2000/svg" xmlns:xlink="http://www.w3.org/1999/xlink" xml:space="preserve" xmlns:serif="http://www.serif.com/" style="fill-rule:evenodd;clip-rule:evenodd;">
    <g id="comp---map" serif:id="comp-/-map">
        <g id="labels">
            <g transform="matrix(0.984808,-0.173648,0.173648,0.984808,108.277,213.647)">
                <g id="LW">
                    <text x="0px" y="0px" style="font-family:'FHPSun-ExtraBold', 'FHP Sun', sans-serif;font-weight:800;font-size:26px;">L<tspan x="9.49px " y="0px ">W</tspan></text>
                </g>
            </g>
            <g transform="matrix(1,0,0,1,195.059,23)">
                <g id="Kiepernheuerallee">
                    <text x="0px" y="0px" style="font-family:'FHPSun-ExtraBold', 'FHP Sun', sans-serif;font-weight:800;font-size:26px;fill:white;">Kiepernheuer<tspan x="151.892px " y="0px ">a</tspan>ll<tspan x="179.842px " y="0px ">e</tspan>e</text>
                </g>
            </g>
            <g transform="matrix(-3.82857e-16,-1,1,-3.82857e-16,23,796.8)">
                <g id="Georg-Herrmann-Allee">
                    <text x="0px" y="0px" style="font-family:'FHPSun-ExtraBold', 'FHP Sun', sans-serif;font-weight:800;font-size:26px;fill:white;">Geor<tspan x="52.286px 66.43px 72.904px " y="0px 0px 0px ">g-H</tspan>errmann-<tspan x="192.998px 208.13px 215.436px 222.56px " y="0px 0px 0px 0px ">Alle</tspan>e</text>
                </g>
            </g>
            <g transform="matrix(1,0,0,1,289.21,983)">
                <g id="Jakob-von-Grundling-">
                    <text x="0px" y="0px" style="font-family:'FHPSun-ExtraBold', 'FHP Sun', sans-serif;font-weight:800;font-size:26px;fill:white;">Jak<tspan x="33.93px 48.204px 62.686px 69.238px " y="0px 0px 0px 0px ">ob-v</tspan>on-<tspan x="117.728px " y="0px ">G</tspan>rundling-Str<tspan x="265.512px " y="0px ">a</tspan>ße</text>
                </g>
            </g>
            <g id="Group-3" transform="matrix(1,0,0,1,141,31)">
                <g opacity="0.500023">
                    <g transform="matrix(1,0,0,1,22.776,16)">
                        <g id="Campus-Fachhochschul">
                            <text x="0px" y="0px" style="font-family:'FHPSun-Bold', 'FHP Sun', sans-serif;font-weight:700;font-size:18px;fill:white;">Campus F<tspan x="72.27px " y="0px ">a</tspan>chhochschule (Tr<tspan x="209.412px " y="0px ">a</tspan>m 92 und 9<tspan x="302.868px " y="0px ">6</tspan>)</text>
                        </g>
                    </g>
                    <g id="Group-2" transform="matrix(1,0,0,1,0,1)">
                        <rect id="Rectangle" x="0" y="0" width="17" height="17" style="fill:white;"/>
                        <path id="H" d="M12.143,13.357L9.842,13.357L9.842,9.313L7.158,9.313L7.158,13.357L4.857,13.357L4.857,3.643L7.158,3.643L7.158,7.298L9.842,7.298L9.842,3.643L12.143,3.643L12.143,13.357Z" style="fill-rule:nonzero;"/>
                    </g>
                </g>
            </g>
            <g transform="matrix(0.984808,-0.173648,0.173648,0.984808,108.277,404.647)">
                <g id="LW-Copy">
                    <text x="0px" y="0px" style="font-family:'FHPSun-ExtraBold', 'FHP Sun', sans-serif;font-weight:800;font-size:26px;">L<tspan x="9.49px " y="0px ">W</tspan></text>
                </g>
            </g>
            <g transform="matrix(0.984808,-0.173648,0.173648,0.984808,224.317,182.229)">
                <g id="D">
                    <text x="0px" y="0px" style="font-family:'FHPSun-ExtraBold', 'FHP Sun', sans-serif;font-weight:800;font-size:26px;">D</text>
                </g>
            </g>
            <g transform="matrix(0.984808,-0.173648,0.173648,0.984808,225.022,365.193)">
                <g id="A">
                    <text x="0px" y="0px" style="font-family:'FHPSun-ExtraBold', 'FHP Sun', sans-serif;font-weight:800;font-size:26px;">A</text>
                </g>
            </g>
            <g transform="matrix(0.984808,-0.173648,0.173648,0.984808,107.162,791.992)">
                <g id="_1" serif:id="1">
                    <text x="0px" y="0px" style="font-family:'FHPSun-ExtraBold', 'FHP Sun', sans-serif;font-weight:800;font-size:26px;">1</text>
                </g>
            </g>
            <g transform="matrix(0.984808,-0.173648,0.173648,0.984808,219.162,775.992)">
                <g id="_2" serif:id="2">
                    <text x="0px" y="0px" style="font-family:'FHPSun-ExtraBold', 'FHP Sun', sans-serif;font-weight:800;font-size:26px;">2</text>
                </g>
            </g>
            <g transform="matrix(0.984808,-0.173648,0.173648,0.984808,385.049,906.951)">
                <g id="IBZ">
                    <text x="0px" y="0px" style="font-family:'FHPSun-ExtraBold', 'FHP Sun', sans-serif;font-weight:800;font-size:26px;">IBZ</text>
                </g>
            </g>
            <g transform="matrix(0.984808,-0.173648,0.173648,0.984808,384.162,704.992)">
                <g id="_3" serif:id="3">
                    <text x="0px" y="0px" style="font-family:'FHPSun-ExtraBold', 'FHP Sun', sans-serif;font-weight:800;font-size:26px;">3</text>
                </g>
            </g>
            <g transform="matrix(0.984808,-0.173648,0.173648,0.984808,547.162,781.992)">
                <g id="_4" serif:id="4">
                    <text x="0px" y="0px" style="font-family:'FHPSun-ExtraBold', 'FHP Sun', sans-serif;font-weight:800;font-size:26px;">4</text>
                </g>
            </g>
            <g transform="matrix(0.984808,-0.173648,0.173648,0.984808,660.162,781.992)">
                <g id="_5" serif:id="5">
                    <text x="0px" y="0px" style="font-family:'FHPSun-ExtraBold', 'FHP Sun', sans-serif;font-weight:800;font-size:26px;">5</text>
                </g>
            </g>
            <g transform="matrix(0.984808,-0.173648,0.173648,0.984808,647.592,498.974)">
                <g id="_17" serif:id="17">
                    <text x="0px" y="0px" style="font-family:'FHPSun-ExtraBold', 'FHP Sun', sans-serif;font-weight:800;font-size:26px;">1<tspan x="11.31px " y="0px ">7</tspan></text>
                </g>
            </g>
            <g id="Group" transform="matrix(0.984808,-0.173648,0.173648,0.984808,578.91,312.682)">
                <rect id="Rectangle1" serif:id="Rectangle" x="1.5" y="1.5" width="36" height="36" style="stroke:white;stroke-width:3px;"/>
                <g transform="matrix(1,0,0,1,12.259,29)">
                    <g id="P">
                        <text x="0px" y="0px" style="font-family:'FHPSun-ExtraBold', 'FHP Sun', sans-serif;font-weight:800;font-size:26px;fill:white;">P</text>
                    </g>
                </g>
            </g>
            <g transform="matrix(0.984808,-0.173648,0.173648,0.984808,519.646,364.684)">
                <g id="S">
                    <text x="0px" y="0px" style="font-family:'FHPSun-ExtraBold', 'FHP Sun', sans-serif;font-weight:800;font-size:18px;">S</text>
                </g>
            </g>
            <g transform="matrix(0.984808,-0.173648,0.173648,0.984808,380.739,241.653)">
                <g id="HG">
                    <text x="0px" y="0px" style="font-family:'FHPSun-ExtraBold', 'FHP Sun', sans-serif;font-weight:800;font-size:26px;">HG</text>
                </g>
            </g>
        </g>
    </g>
</svg>
