<?xml version="1.0" encoding="UTF-8"?>
<svg width="65px" height="98px" viewBox="0 0 65 98" version="1.1" xmlns="http://www.w3.org/2000/svg" xmlns:xlink="http://www.w3.org/1999/xlink">
    <!-- Generator: Sketch 55.1 (78136) - https://sketchapp.com -->
    <title>Group 12</title>
    <desc>Created with Sketch.</desc>
    <g id="Icons" stroke="none" stroke-width="1" fill="none" fill-rule="evenodd">
        <g id="export-/-icons-/-location" transform="translate(-32.000000, -18.000000)" fill="#FFFFFF">
            <g id="Group-12" transform="translate(31.333333, 18.000000)">
                <path d="M28.0883345,54.657309 C28.1318198,54.6200994 28.1637452,54.5925755 28.1959415,54.5653746 C28.9833739,53.8987895 29.6969309,53.1781253 30.243049,52.3345724 C30.7403533,51.5665285 31.0259658,50.7369798 31.1334825,49.8577912 C31.1710072,49.5506705 31.1883923,49.2415319 31.2130476,48.9332005 C31.2233883,48.8039354 31.2210854,48.8031282 31.0792048,48.8029668 C29.99171,48.8013525 28.9042604,48.8001014 27.8167656,48.7984064 C27.7689453,48.7983257 27.7211701,48.7946532 27.6666667,48.7924335 L27.6666667,39.7708333 L37.6576836,39.7708333 C37.6595802,39.808043 37.6630121,39.8436383 37.6630121,39.8792336 C37.6637346,42.7243579 37.6718627,45.5694822 37.661251,48.4145661 C37.6563741,49.7087913 37.5164805,50.9922007 37.120958,52.2438891 C36.8259982,53.177197 36.3986859,54.0575156 35.8206424,54.8819389 C35.0214243,56.0219177 33.9887039,56.9669697 32.83063,57.8121369 C32.7636184,57.8610502 32.690917,57.9047574 32.6297756,57.9588768 C32.5601901,58.020422 32.5114214,58.0077901 32.4413843,57.9546392 C31.4978472,57.238374 30.5515104,56.5250549 29.6063477,55.8105654 C29.1438136,55.4609079 28.6821375,55.1103221 28.2201904,54.7600592 C28.1803175,54.7297507 28.1412575,54.6985544 28.0883345,54.657309 Z M27.6666667,33.2083333 L27.6666667,23.0099958 C27.711197,23.0073029 27.7511788,23.0026931 27.7911606,23.0026931 C31.0395117,23.0023736 34.2877718,23.0029213 37.5360773,23 C37.6452427,23 37.6666667,23.0367878 37.6666667,23.1370637 C37.6644376,26.4536081 37.664847,29.7701525 37.6646195,33.0866969 C37.6646195,33.1240322 37.6612536,33.1613675 37.6590248,33.2083333 L27.6666667,33.2083333 Z" id="Combined-Shape"></path>
                <path d="M35.5526015,94.4817627 C55.6296272,64.8767049 65.6666667,44.496213 65.6666667,32.7159421 C65.6666667,14.6474262 51.115921,0 33.1666667,0 C15.2174123,0 0.666666667,14.6474262 0.666666667,32.7159421 C0.666666667,44.496213 10.7037061,64.8767049 30.7807318,94.4817627 L33.1666667,98 L35.5526015,94.4817627 Z M6.44444444,32.7159421 C6.44444444,17.8596068 18.4083909,5.81616749 33.1666667,5.81616749 C47.9249425,5.81616749 59.8888889,17.8596068 59.8888889,32.7159421 C59.8888889,42.4598496 50.980618,60.956246 33.166668,87.6559613 C15.3527158,60.9562469 6.44444444,42.4598498 6.44444444,32.7159421 Z" id="Oval" fill-rule="nonzero"></path>
            </g>
        </g>
    </g>
</svg>